/home/sanjana/Downloads/mysql/src/main/java/com/example/mysql/controller/MainController.java
/home/sanjana/Downloads/mysql/src/main/java/com/example/mysql/MysqlApplication.java
/home/sanjana/Downloads/mysql/src/main/java/com/example/mysql/repository/UserRepository.java
/home/sanjana/Downloads/mysql/src/main/java/com/example/mysql/entity/User.java
